<svg width="27" height="10" viewBox="0 0 27 10"  xmlns="http://www.w3.org/2000/svg">
    <path  d="M0.719545 4.28598H24.5383L21.4632 1.23408C21.1787 0.95181 21.1787 0.494216 21.4632 0.211704C21.7476 -0.07057 22.2089 -0.07057 22.4933 0.211704L26.7878 4.47368C26.9339 4.61851 27.0037 4.80955 26.9999 4.9994V5.0006C27.0037 5.19044 26.9339 5.38125 26.7878 5.52632L22.4933 9.78829C22.2089 10.0706 21.7476 10.0706 21.4632 9.78829C21.1787 9.50578 21.1787 9.04819 21.4632 8.76568L24.5383 5.71402H0.719545C0.322117 5.71402 0 5.39435 0 4.99988C0 4.60565 0.322117 4.28598 0.719545 4.28598Z"/>
</svg>
