<svg width="24" height="20" viewBox="0 0 24 20" xmlns="http://www.w3.org/2000/svg">
    <path d="M0.923096 6.56475V16.1915C0.923096 17.6608 2.13478 18.8542 3.62677 18.8542H20.3733C21.8653 18.8542 23.0769 17.6608 23.0769 16.1915V6.56475C23.0769 5.16661 21.924 4.03117 20.5044 4.03117H16.9055L16.8196 3.6616C16.4715 2.17885 15.1468 1.14583 13.6005 1.14583H10.395C8.85327 1.14583 7.52856 2.17885 7.17591 3.6616L7.09 4.03117H3.49565C2.076 4.03117 0.923096 5.17106 0.923096 6.56475ZM7.53308 5.12208C7.79079 5.12208 8.01233 4.94842 8.0711 4.69907L8.25647 3.90649C8.49157 2.92245 9.36868 2.23674 10.395 2.23674H13.6005C14.6268 2.23674 15.5039 2.92245 15.739 3.90649L15.9244 4.69907C15.9832 4.94397 16.2047 5.12208 16.4624 5.12208H20.4999C21.3092 5.12208 21.9647 5.76772 21.9647 6.56475V16.1915C21.9647 17.0597 21.2504 17.7633 20.3687 17.7633H3.62677C2.74514 17.7633 2.03079 17.0597 2.03079 16.1915V6.56475C2.03079 5.76772 2.68636 5.12208 3.49565 5.12208H7.53308Z"/>
    <path d="M12 16.0534C14.5635 16.0534 16.6523 13.9963 16.6523 11.4716C16.6523 8.94694 14.5635 6.88979 12 6.88979C9.43645 6.88979 7.34766 8.94248 7.34766 11.4716C7.34766 14.0007 9.43645 16.0534 12 16.0534ZM12 7.9807C13.9531 7.9807 15.5446 9.54805 15.5446 11.4716C15.5446 13.3952 13.9531 14.9625 12 14.9625C10.0468 14.9625 8.45535 13.3952 8.45535 11.4716C8.45535 9.54805 10.0468 7.9807 12 7.9807Z"/>
</svg>
